%YAML 1.1
%TAG !u! tag:unity3d.com,2011:
--- !u!114 &11400000
MonoBehaviour:
  m_ObjectHideFlags: 0
  m_CorrespondingSourceObject: {fileID: 0}
  m_PrefabInstance: {fileID: 0}
  m_PrefabAsset: {fileID: 0}
  m_GameObject: {fileID: 0}
  m_Enabled: 1
  m_EditorHideFlags: 0
  m_Script: {fileID: 11500000, guid: bfdfc8e3ec72ff84599d1955aaf7c2e3, type: 3}
  m_Name: CardExample
  m_EditorClassIdentifier: 
  cardName: Test
  Description: This is a test
  baseCardImage: {fileID: 0}
  cardImage: {fileID: 0}
